Preprocess Lanner’s data
…
              arrayexpress.ftp.3, arrayexpress.ftp.4,
              library.layout, library.selection, library.source,
              library.strategy, tech.type, file.name)) %>%
    mutate(
        cell = factor(cell),
        individual = factor(individual),
        treatment = factor(treatment),
        lineage = factor(str_replace(lineage, 'not applicable', 'none')),
        te.subpop = factor(str_replace(te.subpop, 'not applicable', 'none')),
        ena.exp = factor(ena.exp),
        dev.stage = factor(str_replace(dev.stage, 'embryonic day ', 'E'))) %>%
    rename(embryonic.day = dev.stage)
cell.meta

## # A tibble: 1,529 x 13
##        cell ena.sample biosd.sample individual embryonic.day treatment
##      <fctr>      <chr>        <chr>     <fctr>        <fctr>    <fctr>
## 1  E3.1.443  ERS887923 SAMEA3580774       E3.1            E3        No
## 2  E3.1.444  ERS887924 SAMEA3580775       E3.1            E3        No
## 3  E3.1.445  ERS887925 SAMEA3580776       E3.1            E3        No
## 4  E3.1.447  ERS887926 SAMEA3580777       E3.1            E3        No
## 5  E3.1.448  ERS887927 SAMEA3580778       E3.1            E3        No
## 6  E3.2.449  ERS887928 SAMEA3580779       E3.2            E3        No
## 7  E3.2.450  ERS887929 SAMEA3580780       E3.2            E3        No
## 8  E3.2.452  ERS887930 SAMEA3580781       E3.2            E3        No
## 9  E3.2.453  ERS887931 SAMEA3580782       E3.2            E3        No
## 10 E3.2.454  ERS887932 SAMEA3580783       E3.2            E3        No
## # ... with 1,519 more rows, and 7 more variables: lineage <fctr>,
## #   te.subpop <fctr>, pseudotime <dbl>, ena.exp <fctr>, ena.run <chr>,
## #   fastq.uri <chr>, cell.id <int>
…
Analysis of variance.

.data <- expr.m %>% left_join(select(cell.meta, cell, embryonic.day, lineage))

## Joining, by = "cell"

embryonic.day.aov <-
    .data %>%
    group_by(gene) %>%
    do(tidy(aov(log.x.adj ~ lineage, .))) %>%
    ungroup() %>%
    arrange(p.value)
embryonic.day.aov %>% filter(p.value <= .05)

## # A tibble: 20,938 x 7
##       gene    term    df     sumsq   meansq statistic       p.value
##     <fctr>   <chr> <dbl>     <dbl>    <dbl>     <dbl>         <dbl>
## 1    ARGFX lineage     3 1574.7269 524.9090  960.1044  0.000000e+00
## 2  BECN1P1 lineage     3 1252.5764 417.5255 1009.0662  0.000000e+00
## 3     TPM4 lineage     3 1302.0348 434.0116  857.1705  0.000000e+00
## 4     LRP2 lineage     3 1483.4714 494.4905  822.6533 4.419150e-318
## 5     CD82 lineage     3  770.6904 256.8968  814.3125 5.323722e-316
## 6    ABCG2 lineage     3 1487.8215 495.9405  752.2629 4.275371e-300
## 7    GATA2 lineage     3 1409.3086 469.7695  735.5294 1.132941e-295
## 8     DLX3 lineage     3 1284.0377 428.0126  709.9067 8.784444e-289
## 9   S100A6 lineage     3 1243.9746 414.6582  705.1762 1.704044e-287
## 10   KRT19 lineage     3 1752.5322 584.1774  688.5422 6.307806e-283
## # ... with 20,928 more rows
…
